# A tibble: 272 x 3
    year sex    n_all
   <int> <chr>  <int>
 1  1880 F      97604
 2  1880 M     118399
 3  1881 F      98855
 4  1881 M     108282
 5  1882 F     115696
 6  1882 M     122031
 7  1883 F     120059
 8  1883 M     112478
 9  1884 F     137586
10  1884 M     122739
# ... with 262 more rows
